{
  "generatedAt": "2026-07-08T05:53:50",
  "drawCount": 1231,
  "pageCount": 109,
  "changedCount": 108,
  "insights": {
    "drawCount": 1231,
    "topNumbers": [
      {
        "number": 13,
        "score": 65.63,
        "count": 179,
        "recentCount": 5
      },
      {
        "number": 28,
        "score": 62.22,
        "count": 157,
        "recentCount": 6
      },
      {
        "number": 34,
        "score": 61.47,
        "count": 184,
        "recentCount": 3
      },
      {
        "number": 31,
        "score": 61.14,
        "count": 168,
        "recentCount": 5
      },
      {
        "number": 18,
        "score": 60.89,
        "count": 176,
        "recentCount": 4
      },
      {
        "number": 15,
        "score": 60.38,
        "count": 167,
        "recentCount": 5
      },
      {
        "number": 44,
        "score": 59.8,
        "count": 164,
        "recentCount": 5
      },
      {
        "number": 45,
        "score": 59.79,
        "count": 175,
        "recentCount": 4
      }
    ],
    "topPatterns": [
      {
        "key": "consecutive-0",
        "slug": "pattern-consecutive-0",
        "label": "연속수 0개",
        "count": 593,
        "recentCount": 9
      },
      {
        "key": "ending-dup-1",
        "slug": "pattern-ending-dup-1",
        "label": "끝수 중복 1개",
        "count": 591,
        "recentCount": 11
      },
      {
        "key": "consecutive-1",
        "slug": "pattern-consecutive-1",
        "label": "연속수 1개",
        "count": 483,
        "recentCount": 8
      },
      {
        "key": "sum-120-149",
        "slug": "pattern-sum-120-149",
        "label": "번호합 120-149",
        "count": 452,
        "recentCount": 6
      },
      {
        "key": "odd-even-3-3",
        "slug": "pattern-odd-even-3-3",
        "label": "홀짝 3:3",
        "count": 412,
        "recentCount": 6
      },
      {
        "key": "low-high-3-3",
        "slug": "pattern-low-high-3-3",
        "label": "저고 3:3",
        "count": 404,
        "recentCount": 7
      },
      {
        "key": "sum-150-179",
        "slug": "pattern-sum-150-179",
        "label": "번호합 150-179",
        "count": 330,
        "recentCount": 7
      },
      {
        "key": "odd-even-4-2",
        "slug": "pattern-odd-even-4-2",
        "label": "홀짝 4:2",
        "count": 328,
        "recentCount": 6
      }
    ],
    "topPairs": [
      {
        "numbers": [
          11,
          21
        ],
        "count": 34
      },
      {
        "numbers": [
          33,
          40
        ],
        "count": 33
      },
      {
        "numbers": [
          6,
          38
        ],
        "count": 31
      },
      {
        "numbers": [
          1,
          28
        ],
        "count": 30
      },
      {
        "numbers": [
          10,
          31
        ],
        "count": 30
      },
      {
        "numbers": [
          12,
          24
        ],
        "count": 30
      },
      {
        "numbers": [
          34,
          42
        ],
        "count": 30
      },
      {
        "numbers": [
          37,
          40
        ],
        "count": 29
      }
    ],
    "recentPatterns": [
      {
        "key": "ending-dup-1",
        "slug": "pattern-ending-dup-1",
        "label": "끝수 중복 1개",
        "count": 11,
        "allCount": 591
      },
      {
        "key": "consecutive-0",
        "slug": "pattern-consecutive-0",
        "label": "연속수 0개",
        "count": 9,
        "allCount": 593
      },
      {
        "key": "consecutive-1",
        "slug": "pattern-consecutive-1",
        "label": "연속수 1개",
        "count": 8,
        "allCount": 483
      },
      {
        "key": "sum-150-179",
        "slug": "pattern-sum-150-179",
        "label": "번호합 150-179",
        "count": 7,
        "allCount": 330
      },
      {
        "key": "low-high-3-3",
        "slug": "pattern-low-high-3-3",
        "label": "저고 3:3",
        "count": 7,
        "allCount": 404
      },
      {
        "key": "low-high-4-2",
        "slug": "pattern-low-high-4-2",
        "label": "저고 4:2",
        "count": 7,
        "allCount": 278
      },
      {
        "key": "odd-even-4-2",
        "slug": "pattern-odd-even-4-2",
        "label": "홀짝 4:2",
        "count": 6,
        "allCount": 328
      },
      {
        "key": "ending-dup-2",
        "slug": "pattern-ending-dup-2",
        "label": "끝수 중복 2개",
        "count": 6,
        "allCount": 321
      }
    ]
  }
}
